[
  {
    "email": "lewis_buckner@pathways.site",
    "name": "Lewis Buckner"
  },
  {
    "email": "simpson_dotson@cofine.racing",
    "name": "Simpson Dotson"
  },
  {
    "email": "olivia_whitaker@retrotex.delivery",
    "name": "Olivia Whitaker"
  },
  {
    "email": "leonard_weber@qnekt.recipes",
    "name": "Leonard Weber"
  },
  {
    "email": "chaney_estrada@lyrichord.international",
    "name": "Chaney Estrada"
  },
  {
    "email": "freeman_conrad@buzzness.immobilien",
    "name": "Freeman Conrad"
  },
  {
    "email": "marie_moore@geekmosis.tz",
    "name": "Marie Moore"
  },
  {
    "email": "bender_key@talae.apartments",
    "name": "Bender Key"
  },
  {
    "email": "henrietta_carson@biospan.design",
    "name": "Henrietta Carson"
  },
  {
    "email": "natasha_joseph@qimonk.miami",
    "name": "Natasha Joseph"
  },
  {
    "email": "morrow_meyer@dentrex.rip",
    "name": "Morrow Meyer"
  },
  {
    "email": "mosley_mccullough@steeltab.uz",
    "name": "Mosley Mccullough"
  },
  {
    "email": "jill_stanley@xth.land",
    "name": "Jill Stanley"
  },
  {
    "email": "phillips_mcdonald@multron.tc",
    "name": "Phillips Mcdonald"
  },
  {
    "email": "eve_neal@mazuda.rich",
    "name": "Eve Neal"
  },
  {
    "email": "crystal_goodman@terrago.je",
    "name": "Crystal Goodman"
  },
  {
    "email": "maxine_salas@nipaz.express",
    "name": "Maxine Salas"
  },
  {
    "email": "simon_knowles@updat.engineering",
    "name": "Simon Knowles"
  },
  {
    "email": "michael_gilliam@isoplex.hk",
    "name": "Michael Gilliam"
  },
  {
    "email": "kendra_payne@uniworld.kddi",
    "name": "Kendra Payne"
  },
  {
    "email": "stella_campbell@satiance.tickets",
    "name": "Stella Campbell"
  },
  {
    "email": "luz_leblanc@pyrami.cbn",
    "name": "Luz Leblanc"
  },
  {
    "email": "cline_morse@supportal.hamburg",
    "name": "Cline Morse"
  },
  {
    "email": "freda_holden@quilk.bj",
    "name": "Freda Holden"
  },
  {
    "email": "ramos_booker@cytrak.surf",
    "name": "Ramos Booker"
  },
  {
    "email": "shannon_stone@permadyne.sarl",
    "name": "Shannon Stone"
  }
]